TRADE 1 0
TRADE 1 0
TRADE 1 0
TRADE 1 0
TRADE 1 0
NEXT_AGE 1 0
NEXT_AGE 1 0
BUILD 1 2
BUILD 1 2
BUILD 1 3
BUILD 1 3
BUILD 1 3
BUILD 1 4
EXPLORE 1 1
EXPLORE 1 1
EXPLORE 1 2
EXPLORE 1 2
GATHER 1 0
GATHER 1 0
GATHER 1 0
GATHER 1 0
GATHER 1 0
HERMES 2 0
HERA 2 3
ARTEMIS 2 0
POSEIDON 2 0
DIONYSUS 2 0
HEPHAESTOS 2 0